{
  "endpointAddress" : "http://services.odata.org/V3/Northwind/Northwind.svc/Products_Above_Average_Prices",
  "method" : "GET",
  "contentType" : "text/xml",
  "requestBody" : "",
  "authType" : "NONE",
  "headers" : { },
  "queryParams" : { },
  "sampleRestResponse" : {
    "responseBody" : "{\"odata.metadata\":\"http://services.odata.org/V3/Northwind/Northwind.svc/$metadata#Products_Above_Average_Prices\",\"value\":[{\"ProductName\":\"Alice Mutton\",\"UnitPrice\":\"39.0000\"},{\"ProductName\":\"Camembert Pierrot\",\"UnitPrice\":\"34.0000\"},{\"ProductName\":\"Carnarvon Tigers\",\"UnitPrice\":\"62.5000\"},{\"ProductName\":\"Côte de Blaye\",\"UnitPrice\":\"263.5000\"},{\"ProductName\":\"Gnocchi di nonna Alice\",\"UnitPrice\":\"38.0000\"},{\"ProductName\":\"Gudbrandsdalsost\",\"UnitPrice\":\"36.0000\"},{\"ProductName\":\"Gumbär Gummibärchen\",\"UnitPrice\":\"31.2300\"},{\"ProductName\":\"Ikura\",\"UnitPrice\":\"31.0000\"},{\"ProductName\":\"Ipoh Coffee\",\"UnitPrice\":\"46.0000\"},{\"ProductName\":\"Manjimup Dried Apples\",\"UnitPrice\":\"53.0000\"},{\"ProductName\":\"Mascarpone Fabioli\",\"UnitPrice\":\"32.0000\"},{\"ProductName\":\"Mishi Kobe Niku\",\"UnitPrice\":\"97.0000\"},{\"ProductName\":\"Mozzarella di Giovanni\",\"UnitPrice\":\"34.8000\"},{\"ProductName\":\"Northwoods Cranberry Sauce\",\"UnitPrice\":\"40.0000\"},{\"ProductName\":\"Perth Pasties\",\"UnitPrice\":\"32.8000\"},{\"ProductName\":\"Queso Manchego La Pastora\",\"UnitPrice\":\"38.0000\"},{\"ProductName\":\"Raclette Courdavault\",\"UnitPrice\":\"55.0000\"},{\"ProductName\":\"Rössle Sauerkraut\",\"UnitPrice\":\"45.6000\"},{\"ProductName\":\"Schoggi Schokolade\",\"UnitPrice\":\"43.9000\"},{\"ProductName\":\"Sir Rodney's Marmalade\",\"UnitPrice\":\"81.0000\"},{\"ProductName\":\"Tarte au sucre\",\"UnitPrice\":\"49.3000\"},{\"ProductName\":\"Thüringer Rostbratwurst\",\"UnitPrice\":\"123.7900\"},{\"ProductName\":\"Uncle Bob's Organic Dried Pears\",\"UnitPrice\":\"30.0000\"},{\"ProductName\":\"Vegie-spread\",\"UnitPrice\":\"43.9000\"},{\"ProductName\":\"Wimmers gute Semmelknödel\",\"UnitPrice\":\"33.2500\"}]}",
    "convertedResponse" : null,
    "statusCode" : 200,
    "responseHeaders" : {
      "Access-Control-Expose-Headers" : [ "DataServiceVersion" ],
      "DataServiceVersion" : [ "3.0;" ],
      "Expires" : [ "Wed, 15 Jun 2016 09:42:18 GMT" ],
      "Set-Cookie" : [ "ARRAffinity=55bd4497a61c77b5d58c049fb320d7f8123316355b80950f2dc29507c76bd46f;Path=/;Domain=services.odata.org" ],
      "Access-Control-Allow-Methods" : [ "GET" ],
      "Server" : [ "Microsoft-IIS/8.0" ],
      "X-Powered-By" : [ "ASP.NET" ],
      "Cache-Control" : [ "private" ],
      "X-Content-Type-Options" : [ "nosniff" ],
      "X-AspNet-Version" : [ "4.0.30319" ],
      "Access-Control-Allow-Headers" : [ "Accept, Origin, Content-Type, MaxDataServiceVersion" ],
      "Date" : [ "Wed, 15 Jun 2016 09:41:17 GMT" ],
      "Vary" : [ "*" ],
      "Access-Control-Allow-Origin" : [ "*" ],
      "Content-Type" : [ "application/json;odata=minimalmetadata;streaming=true;charset=utf-8" ]
    },
    "contentType" : "application/json",
    "cookies" : [ {
      "name" : "ARRAffinity",
      "value" : "55bd4497a61c77b5d58c049fb320d7f8123316355b80950f2dc29507c76bd46f",
      "expiryDate" : null,
      "ports" : null,
      "commentURL" : null,
      "domain" : "services.odata.org",
      "version" : 0,
      "path" : "/",
      "comment" : null,
      "secure" : false,
      "persistent" : false
    } ]
  },
  "redirectEnabled" : true
}