{
  "swagger" : "2.0",
  "info" : {
    "version" : "2.0",
    "x-WM-SERVICE_TYPE" : "RestService",
    "x-WM-API_ID" : "bd3ed440-9daa-4f54-9572-42752ae94477",
    "x-WM-SERVICE_ID" : "odata"
  },
  "host" : "services.odata.org",
  "tags" : [ {
    "name" : "RestServiceVirtualController",
    "description" : "Rest service swagger documentation"
  } ],
  "schemes" : [ "http" ],
  "paths" : {
    "/odataversion4/invoke" : {
      "get" : {
        "tags" : [ "RestServiceVirtualController" ],
        "operationId" : "odataversion4_RestServiceVirtualController-invoke",
        "consumes" : [ "text/xml" ],
        "parameters" : [ {
          "name" : "paramvalue",
          "in" : "query",
          "required" : true,
          "type" : "string"
        } ],
        "responses" : {
          "200" : {
            "description" : "Success",
            "schema" : {
              "$ref" : "#/definitions/RootResponse"
            }
          }
        },
        "x-WM-METHOD_NAME" : "invoke",
        "x-WM-ACCESS_SPECIFIER" : "APP_ONLY"
      },
      "x-WM-BASE_PATH" : "/odataversion4/invoke",
      "x-WM-TAG" : "RestServiceVirtualController",
      "x-WM-RELATIVE_PATH" : ""
    }
  },
  "definitions" : {
    "RootResponse" : {
      "properties" : {
        "value" : {
          "type" : "array",
          "items" : {
            "$ref" : "#/definitions/valueEntryItem"
          },
          "x-WM-IS_LIST" : true
        },
        "@odata.context" : {
          "type" : "string"
        }
      },
      "x-WM-FULLY_QUALIFIED_NAME" : "odataversion4.RootResponse",
      "x-WM-TAGS" : [ "RestServiceVirtualController" ]
    },
    "valueEntryItem" : {
      "properties" : {
        "ProductName" : {
          "type" : "string"
        },
        "UnitPrice" : {
          "type" : "number",
          "format" : "double"
        }
      },
      "x-WM-FULLY_QUALIFIED_NAME" : "odataversion4.valueEntryItem",
      "x-WM-TAGS" : [ "RestServiceVirtualController" ]
    }
  }
}