{
  "swagger" : "2.0",
  "info" : {
    "version" : "2.0",
    "x-WM-SERVICE_TYPE" : "RestService",
    "x-WM-API_ID" : "3869b1d5-8d1d-4fed-9eb0-76234ae775a5",
    "x-WM-SERVICE_ID" : "odata"
  },
  "host" : "services.odata.org",
  "basePath" : "/V2/Northwind/Northwind.svc/{paramvalue}",
  "tags" : [ {
    "name" : "RestServiceVirtualController",
    "description" : "Rest service swagger documentation"
  } ],
  "schemes" : [ "http" ],
  "paths" : {
    "" : {
      "get" : {
        "tags" : [ "RestServiceVirtualController" ],
        "operationId" : "odataversion2_RestServiceVirtualController-invoke",
        "consumes" : [ "text/xml" ],
        "parameters" : [ {
          "name" : "paramvalue",
          "in" : "path",
          "required" : true,
          "type" : "string"
        } ],
        "responses" : {
          "200" : {
            "description" : "Success",
            "schema" : {
              "$ref" : "#/definitions/RootResponse"
            }
          }
        },
        "x-WM-METHOD_NAME" : "invoke",
        "x-WM-ACCESS_SPECIFIER" : "APP_ONLY"
      },
      "x-WM-TAG" : "RestServiceVirtualController",
      "x-WM-BASE_PATH" : "/V2/Northwind/Northwind.svc/{paramvalue}",
      "x-WM-RELATIVE_PATH" : ""
    }
  },
  "definitions" : {
    "RootResponse" : {
      "properties" : {
        "d" : {
          "$ref" : "#/definitions/d"
        }
      },
      "x-WM-FULLY_QUALIFIED_NAME" : "odataversion2.RootResponse",
      "x-WM-TAGS" : [ "RestServiceVirtualController" ]
    },
    "d" : {
      "properties" : {
        "results" : {
          "type" : "array",
          "uniqueItems" : false,
          "items" : {
            "$ref" : "#/definitions/resultsEntryItem"
          },
          "x-WM-IS_LIST" : true
        }
      },
      "x-WM-FULLY_QUALIFIED_NAME" : "odataversion2.d",
      "x-WM-TAGS" : [ "RestServiceVirtualController" ]
    },
    "resultsEntryItem" : {
      "properties" : {
        "ProductName" : {
          "type" : "string"
        },
        "UnitPrice" : {
          "type" : "string"
        },
        "__metadata" : {
          "$ref" : "#/definitions/__metadata"
        }
      },
      "x-WM-FULLY_QUALIFIED_NAME" : "odataversion2.resultsEntryItem",
      "x-WM-TAGS" : [ "RestServiceVirtualController" ]
    },
    "__metadata" : {
      "properties" : {
        "type" : {
          "type" : "string"
        },
        "uri" : {
          "type" : "string"
        }
      },
      "x-WM-FULLY_QUALIFIED_NAME" : "odataversion2.__metadata",
      "x-WM-TAGS" : [ "RestServiceVirtualController" ]
    }
  }
}