{
  "OdataInvoke" : {
    "_id" : "wm-OdataInvoke-wm.ServiceVariable-1465984506663",
    "name" : "OdataInvoke",
    "owner" : "Page",
    "category" : "wm.ServiceVariable",
    "dataBinding" : [ ],
    "type" : "odata.RootResponse",
    "service" : "odata",
    "operation" : "invoke",
    "operationId" : "odata_RestServiceVirtualController-invoke",
    "operationType" : "get",
    "serviceType" : "RestService",
    "dataSet" : [ ],
    "isList" : false,
    "firstRow" : 0,
    "maxResults" : 20,
    "designMaxResults" : 10,
    "startUpdate" : true,
    "autoUpdate" : false,
    "inFlightBehavior" : "executeLast",
    "transformationRequired" : false,
    "saveInPhonegap" : false,
    "isDefault" : true,
    "controller" : "RestServiceVirtual"
  },
  "Odataversion2Invoke" : {
    "_id" : "wm-Odataversion2Invoke-wm.ServiceVariable-1465986171065",
    "name" : "Odataversion2Invoke",
    "owner" : "Page",
    "category" : "wm.ServiceVariable",
    "dataBinding" : [ {
      "target" : "paramvalue",
      "value" : "bind:Widgets.grid1.selecteditem.url",
      "type" : "string"
    } ],
    "type" : "odataversion2.RootResponse",
    "service" : "odataversion2",
    "operation" : "invoke",
    "operationId" : "odataversion2_RestServiceVirtualController-invoke",
    "operationType" : "get",
    "serviceType" : "RestService",
    "dataSet" : [ ],
    "isList" : false,
    "firstRow" : 0,
    "maxResults" : 20,
    "designMaxResults" : 10,
    "startUpdate" : false,
    "autoUpdate" : true,
    "inFlightBehavior" : "executeLast",
    "transformationRequired" : false,
    "saveInPhonegap" : false,
    "isDefault" : true,
    "controller" : "RestServiceVirtual"
  },
  "Odataversion3Invoke" : {
    "_id" : "wm-Odataversion3Invoke-wm.ServiceVariable-1465986298756",
    "name" : "Odataversion3Invoke",
    "owner" : "Page",
    "category" : "wm.ServiceVariable",
    "dataBinding" : [ {
      "target" : "paramvalue",
      "value" : "bind:Widgets.grid1.selecteditem.url",
      "type" : "string"
    } ],
    "type" : "odataversion3.RootResponse",
    "service" : "odataversion3",
    "operation" : "invoke",
    "operationId" : "odataversion3_RestServiceVirtualController-invoke",
    "operationType" : "get",
    "serviceType" : "RestService",
    "dataSet" : [ ],
    "isList" : false,
    "firstRow" : 0,
    "maxResults" : 20,
    "designMaxResults" : 10,
    "startUpdate" : false,
    "autoUpdate" : true,
    "inFlightBehavior" : "executeLast",
    "transformationRequired" : false,
    "saveInPhonegap" : false,
    "isDefault" : true,
    "controller" : "RestServiceVirtual"
  },
  "Odataversion4Invoke" : {
    "_id" : "wm-Odataversion4Invoke-wm.ServiceVariable-1465986354903",
    "name" : "Odataversion4Invoke",
    "owner" : "Page",
    "category" : "wm.ServiceVariable",
    "dataBinding" : [ {
      "target" : "paramvalue",
      "value" : "bind:Widgets.grid1.selecteditem.url",
      "type" : "string"
    } ],
    "type" : "odataversion4.RootResponse",
    "service" : "odataversion4",
    "operation" : "invoke",
    "operationId" : "odataversion4_RestServiceVirtualController-invoke",
    "operationType" : "get",
    "serviceType" : "RestService",
    "dataSet" : [ ],
    "isList" : false,
    "firstRow" : 0,
    "maxResults" : 20,
    "designMaxResults" : 10,
    "startUpdate" : false,
    "autoUpdate" : true,
    "inFlightBehavior" : "executeLast",
    "transformationRequired" : false,
    "saveInPhonegap" : false,
    "isDefault" : true,
    "controller" : "RestServiceVirtual"
  }
}